time,NO2_filtered
2019-11-18 09:05:50+00,12.0
2019-11-18 09:06:20+00,12.0
2019-11-18 09:06:50+00,12.0
2019-11-18 09:07:20+00,12.0
2019-11-18 09:07:50+00,12.0
2019-11-18 09:08:20+00,12.0
2019-11-18 09:08:50+00,12.0
2019-11-18 09:09:30+00,12.0
2019-11-18 09:12:00+00,13.0
2019-11-18 09:12:30+00,13.0
2019-11-18 09:13:30+00,16.0
2019-11-18 09:14:00+00,13.0
2019-11-18 09:14:40+00,13.0
2019-11-18 09:15:10+00,12.0
2019-11-18 09:15:40+00,12.0
2019-11-18 09:16:10+00,12.0
2019-11-18 09:16:40+00,12.0
2019-11-18 09:17:20+00,11.0
2019-11-18 09:17:50+00,11.0
2019-11-18 09:18:20+00,14.0
2019-11-18 09:18:50+00,14.0
2019-11-18 09:19:40+00,12.0
2019-11-18 09:20:10+00,12.0
2019-11-18 09:20:40+00,12.0
2019-11-18 09:21:20+00,12.0
2019-11-18 09:21:50+00,12.0
2019-11-18 09:22:20+00,13.0
2019-11-18 09:22:50+00,13.0
2019-11-18 09:23:30+00,11.0
2019-11-18 09:24:00+00,11.0
2019-11-18 09:25:30+00,13.0
2019-11-18 09:26:00+00,12.0
2019-11-18 09:26:30+00,12.0
2019-11-18 09:27:00+00,12.0
2019-11-18 09:27:40+00,12.0
2019-11-18 09:28:10+00,12.0
2019-11-18 09:28:40+00,12.0
2019-11-18 09:29:20+00,11.0
2019-11-18 09:29:50+00,11.0
2019-11-18 09:30:20+00,13.0
2019-11-18 09:30:50+00,13.0
2019-11-18 09:31:20+00,12.0
2019-11-18 09:31:50+00,12.0
2019-11-18 09:32:50+00,14.0
2019-11-18 09:33:20+00,13.0
2019-11-18 09:33:50+00,13.0
2019-11-18 09:34:30+00,13.0
2019-11-18 09:35:00+00,13.0
2019-11-18 09:35:30+00,13.0
2019-11-18 09:36:00+00,13.0
2019-11-18 09:36:30+00,13.0
2019-11-18 09:37:00+00,12.0
2019-11-18 09:37:30+00,12.0
2019-11-18 09:38:00+00,13.0
2019-11-18 09:38:30+00,13.0
2019-11-18 09:39:40+00,15.0
2019-11-18 09:40:10+00,11.0
2019-11-18 09:40:40+00,11.0
2019-11-18 09:41:10+00,15.0
2019-11-18 09:41:40+00,15.0
2019-11-18 09:42:10+00,14.0
2019-11-18 09:42:40+00,14.0
2019-11-18 09:43:10+00,13.0
2019-11-18 09:43:50+00,13.0
2019-11-18 09:44:20+00,13.0
2019-11-18 09:44:50+00,13.0
2019-11-18 09:45:20+00,12.0
2019-11-18 09:45:50+00,12.0
2019-11-18 09:46:20+00,13.0
2019-11-18 09:46:50+00,13.0
2019-11-18 09:47:20+00,12.0
2019-11-18 09:47:50+00,12.0
2019-11-18 09:49:00+00,13.0
2019-11-18 09:49:30+00,13.0
2019-11-18 09:50:00+00,11.0
2019-11-18 09:50:30+00,11.0
2019-11-18 09:51:00+00,13.0
2019-11-18 09:51:30+00,13.0
2019-11-18 09:52:00+00,14.0
2019-11-18 09:52:30+00,14.0
2019-11-18 09:53:00+00,15.0
2019-11-18 09:53:30+00,15.0
2019-11-18 09:54:10+00,14.0
2019-11-18 09:54:40+00,14.0
2019-11-18 09:55:10+00,14.0
2019-11-18 09:55:40+00,14.0
2019-11-18 09:56:10+00,13.0
2019-11-18 09:56:40+00,13.0
2019-11-18 09:57:10+00,13.0
2019-11-18 09:57:40+00,13.0
2019-11-18 09:58:10+00,13.0
2019-11-18 09:58:40+00,13.0
2019-11-18 09:59:50+00,13.0
2019-11-18 10:01:20+00,14.0
2019-11-18 10:01:50+00,14.0
2019-11-18 10:02:30+00,13.0
2019-11-18 10:03:00+00,11.0
2019-11-18 10:03:30+00,11.0
2019-11-18 10:04:00+00,12.0
2019-11-18 10:04:30+00,12.0
2019-11-18 10:05:00+00,13.0
2019-11-18 10:05:30+00,13.0
2019-11-18 10:06:00+00,11.0
2019-11-18 10:06:30+00,11.0
2019-11-18 10:07:00+00,12.0
2019-11-18 10:07:30+00,12.0
2019-11-18 10:08:40+00,14.0
2019-11-18 10:09:10+00,13.0
2019-11-18 10:09:40+00,13.0
2019-11-18 10:10:10+00,12.0
2019-11-18 10:10:40+00,12.0
2019-11-18 10:11:10+00,12.0
2019-11-18 10:11:40+00,12.0
2019-11-18 10:12:10+00,14.0
2019-11-18 10:12:40+00,14.0
2019-11-18 10:13:10+00,12.0
2019-11-18 10:13:40+00,12.0
2019-11-18 10:14:10+00,12.0
2019-11-18 10:14:40+00,12.0
2019-11-18 10:15:40+00,14.0
2019-11-18 10:16:10+00,11.0
2019-11-18 10:16:50+00,11.0
2019-11-18 10:17:20+00,13.0
2019-11-18 10:17:50+00,13.0
2019-11-18 10:18:20+00,15.0
2019-11-18 10:18:50+00,15.0
2019-11-18 10:19:20+00,14.0
2019-11-18 10:19:50+00,14.0
2019-11-18 10:20:20+00,13.0
2019-11-18 10:20:50+00,13.0
2019-11-18 10:21:20+00,13.0
2019-11-18 10:22:00+00,13.0
2019-11-18 10:22:30+00,13.0
2019-11-18 10:23:00+00,13.0
2019-11-18 10:23:30+00,13.0
2019-11-18 10:24:00+00,13.0
2019-11-18 10:24:30+00,13.0
2019-11-18 10:26:00+00,14.0
2019-11-18 10:26:30+00,14.0
2019-11-18 10:27:10+00,14.0
2019-11-18 10:27:40+00,14.0
2019-11-18 10:28:10+00,14.0
2019-11-18 10:28:40+00,14.0
2019-11-18 10:29:10+00,15.0
2019-11-18 10:29:40+00,15.0
2019-11-18 10:30:10+00,13.0
2019-11-18 10:30:50+00,13.0
2019-11-18 10:31:20+00,15.0
2019-11-18 10:32:00+00,13.0
2019-11-18 10:32:40+00,13.0
2019-11-18 10:33:30+00,14.0
2019-11-18 10:34:00+00,12.0
2019-11-18 10:34:30+00,12.0
2019-11-18 10:35:00+00,15.0
2019-11-18 10:35:50+00,15.0
2019-11-18 10:36:20+00,11.0
2019-11-18 10:36:50+00,11.0
2019-11-18 10:37:20+00,14.0
2019-11-18 10:37:50+00,14.0
2019-11-18 10:38:20+00,13.0
2019-11-18 10:39:40+00,12.0
2019-11-18 10:40:10+00,13.0
2019-11-18 10:40:40+00,13.0
2019-11-18 10:41:20+00,12.0
2019-11-18 10:41:50+00,12.0
2019-11-18 10:42:20+00,15.0
2019-11-18 10:42:50+00,15.0
2019-11-18 10:43:20+00,15.0
2019-11-18 10:43:50+00,15.0
2019-11-18 10:44:20+00,14.0
2019-11-18 10:44:50+00,14.0
2019-11-18 10:45:20+00,14.0
2019-11-18 10:46:00+00,15.0
2019-11-18 10:46:30+00,15.0
2019-11-18 10:48:00+00,13.0
2019-11-18 10:48:30+00,13.0
2019-11-18 10:49:00+00,14.0
2019-11-18 10:49:30+00,14.0
2019-11-18 10:50:00+00,13.0
2019-11-18 10:50:30+00,13.0
2019-11-18 10:51:10+00,13.0
2019-11-18 10:51:40+00,13.0
2019-11-18 10:52:10+00,13.0
2019-11-18 10:52:40+00,13.0
2019-11-18 10:53:40+00,14.0
2019-11-18 10:54:50+00,11.0
2019-11-18 10:55:20+00,14.0
2019-11-18 10:55:50+00,14.0
2019-11-18 10:56:20+00,12.0
2019-11-18 10:56:50+00,12.0
2019-11-18 10:57:20+00,12.0
2019-11-18 10:57:50+00,12.0
2019-11-18 10:58:20+00,14.0
2019-11-18 10:59:00+00,14.0
2019-11-18 10:59:30+00,14.0
2019-11-18 11:00:00+00,12.0
2019-11-18 11:00:30+00,12.0
2019-11-18 11:01:00+00,11.0
2019-11-18 11:01:30+00,11.0
2019-11-18 11:02:00+00,12.0
2019-11-18 11:02:30+00,12.0
2019-11-18 11:03:00+00,12.0
2019-11-18 11:03:30+00,12.0
2019-11-18 11:05:00+00,12.0
2019-11-18 11:05:40+00,12.0
2019-11-18 11:06:10+00,12.0
2019-11-18 11:06:40+00,12.0
2019-11-18 11:07:10+00,13.0
2019-11-18 11:07:40+00,13.0
2019-11-18 11:08:10+00,14.0
2019-11-18 11:08:40+00,14.0
2019-11-18 11:09:10+00,11.0
2019-11-18 11:09:40+00,11.0
2019-11-18 11:10:10+00,14.0
2019-11-18 11:10:50+00,14.0
2019-11-18 11:11:20+00,13.0
2019-11-18 11:12:40+00,14.0
2019-11-18 11:13:10+00,11.0
2019-11-18 11:13:40+00,11.0
2019-11-18 11:14:20+00,14.0
2019-11-18 11:14:50+00,14.0
2019-11-18 11:15:20+00,11.0
2019-11-18 11:15:50+00,11.0
2019-11-18 11:16:20+00,12.0
2019-11-18 11:16:50+00,12.0
2019-11-18 11:17:20+00,12.0
2019-11-18 11:17:50+00,12.0
2019-11-18 11:18:20+00,11.0
2019-11-18 11:18:50+00,11.0
2019-11-18 11:19:20+00,10.0
2019-11-18 11:20:00+00,13.0
2019-11-18 11:20:30+00,13.0
2019-11-18 11:21:00+00,14.0
2019-11-18 11:21:30+00,14.0
2019-11-18 11:22:00+00,15.0
2019-11-18 11:22:30+00,15.0
2019-11-18 11:23:10+00,14.0
2019-11-18 11:24:20+00,14.0
2019-11-18 11:24:50+00,14.0
2019-11-18 11:25:30+00,13.0
2019-11-18 11:27:00+00,16.0
2019-11-18 11:27:30+00,16.0
2019-11-18 11:28:00+00,17.0
2019-11-18 11:28:30+00,17.0
2019-11-18 11:30:00+00,15.0
2019-11-18 11:30:30+00,15.0
2019-11-18 11:31:10+00,15.0
2019-11-18 11:31:40+00,15.0
2019-11-18 11:32:10+00,15.0
2019-11-18 11:32:40+00,15.0
2019-11-18 11:33:10+00,15.0
2019-11-18 11:33:40+00,15.0
2019-11-18 11:34:10+00,13.0
2019-11-18 11:35:10+00,17.0
2019-11-18 11:35:40+00,17.0
2019-11-18 11:36:10+00,17.0
2019-11-18 11:36:50+00,17.0
2019-11-18 11:37:20+00,15.0
2019-11-18 11:38:30+00,14.0
2019-11-18 11:39:00+00,15.0
2019-11-18 11:39:30+00,15.0
2019-11-18 11:40:00+00,15.0
2019-11-18 11:40:30+00,15.0
2019-11-18 11:41:00+00,16.0
2019-11-18 11:41:30+00,16.0
2019-11-18 11:42:10+00,16.0
2019-11-18 11:42:40+00,16.0
2019-11-18 11:43:40+00,13.0
2019-11-18 11:44:10+00,15.0
2019-11-18 11:44:40+00,15.0
2019-11-18 11:45:10+00,15.0
2019-11-18 11:45:40+00,15.0
2019-11-18 11:46:10+00,14.0
2019-11-18 11:46:40+00,14.0
2019-11-18 11:47:20+00,16.0
2019-11-18 11:47:50+00,16.0
2019-11-18 11:48:20+00,15.0
2019-11-18 11:48:50+00,15.0
2019-11-18 11:49:50+00,13.0
2019-11-18 11:50:20+00,14.0
2019-11-18 11:50:50+00,14.0
2019-11-18 11:51:20+00,14.0
2019-11-18 11:51:50+00,14.0
2019-11-18 11:52:30+00,15.0
2019-11-18 11:53:00+00,14.0
2019-11-18 11:53:40+00,14.0
2019-11-18 11:54:10+00,14.0
2019-11-18 11:54:40+00,14.0
2019-11-18 11:55:40+00,13.0
2019-11-18 11:56:10+00,15.0
2019-11-18 11:56:40+00,15.0
2019-11-18 11:57:10+00,14.0
2019-11-18 11:57:40+00,14.0
2019-11-18 11:58:50+00,16.0
2019-11-18 11:59:20+00,14.0
2019-11-18 11:59:50+00,14.0
2019-11-18 12:03:10+00,13.0
2019-11-18 12:03:40+00,13.0
2019-11-18 12:04:10+00,15.0
2019-11-18 12:04:40+00,15.0
2019-11-18 12:05:10+00,13.0
2019-11-18 12:05:40+00,13.0
2019-11-18 12:06:20+00,14.0
2019-11-18 12:06:50+00,14.0
2019-11-18 12:07:20+00,14.0
2019-11-18 12:08:50+00,13.0
2019-11-18 12:09:20+00,14.0
2019-11-18 12:09:50+00,14.0
2019-11-18 12:10:20+00,15.0
2019-11-18 12:10:50+00,15.0
2019-11-18 12:11:30+00,15.0
2019-11-18 12:12:00+00,14.0
2019-11-18 12:12:30+00,14.0
2019-11-18 12:13:00+00,14.0
2019-11-18 12:13:30+00,14.0
2019-11-18 12:14:00+00,13.0
2019-11-18 12:14:30+00,13.0
2019-11-18 12:15:00+00,15.0
2019-11-18 12:15:30+00,15.0
2019-11-18 12:16:00+00,14.0
2019-11-18 12:16:40+00,14.0
2019-11-18 12:17:10+00,13.0
2019-11-18 12:17:40+00,13.0
2019-11-18 12:18:10+00,15.0
2019-11-18 12:18:40+00,15.0
2019-11-18 12:19:10+00,13.0
2019-11-18 12:19:40+00,13.0
2019-11-18 12:20:10+00,14.0
2019-11-18 12:20:40+00,14.0
2019-11-18 12:21:10+00,16.0
2019-11-18 12:21:50+00,16.0
2019-11-18 12:22:20+00,15.0
2019-11-18 12:22:50+00,15.0
2019-11-18 12:23:20+00,14.0
2019-11-18 12:23:50+00,14.0
2019-11-18 12:24:20+00,14.0
2019-11-18 12:24:50+00,14.0
2019-11-18 12:25:20+00,14.0
2019-11-18 12:25:50+00,14.0
2019-11-18 12:26:30+00,15.0
2019-11-18 12:27:00+00,13.0
2019-11-18 12:27:30+00,13.0
2019-11-18 12:28:00+00,13.0
2019-11-18 12:28:30+00,13.0
2019-11-18 12:29:00+00,13.0
2019-11-18 12:29:30+00,13.0
2019-11-18 12:30:00+00,14.0
2019-11-18 12:30:40+00,14.0
2019-11-18 12:31:10+00,12.0
2019-11-18 12:31:40+00,12.0
2019-11-18 12:32:10+00,13.0
2019-11-18 12:32:40+00,13.0
2019-11-18 12:33:40+00,15.0
2019-11-18 12:34:10+00,13.0
2019-11-18 12:34:40+00,13.0
2019-11-18 12:35:10+00,14.0
2019-11-18 12:35:50+00,14.0
2019-11-18 12:36:50+00,16.0
2019-11-18 12:37:20+00,16.0
2019-11-18 12:37:50+00,16.0
2019-11-18 12:38:20+00,16.0
2019-11-18 12:38:50+00,16.0
2019-11-18 12:40:20+00,14.0
2019-11-18 12:41:00+00,14.0
2019-11-18 12:41:30+00,14.0
2019-11-18 12:42:40+00,14.0
2019-11-18 12:46:50+00,14.0
2019-11-18 12:47:20+00,16.0
2019-11-18 12:47:50+00,16.0
2019-11-18 12:48:20+00,13.0
2019-11-18 12:48:50+00,13.0
2019-11-18 12:49:20+00,15.0
2019-11-18 12:49:50+00,15.0
2019-11-18 12:50:30+00,17.0
2019-11-18 12:51:00+00,14.0
2019-11-18 12:51:30+00,14.0
2019-11-18 12:52:00+00,14.0
2019-11-18 12:54:30+00,14.0
2019-11-18 12:55:00+00,15.0
2019-11-18 12:55:30+00,15.0
2019-11-18 12:56:00+00,15.0
2019-11-18 12:56:30+00,15.0
2019-11-18 12:57:00+00,14.0
2019-11-18 12:57:30+00,14.0
2019-11-18 12:58:30+00,16.0
2019-11-18 12:59:30+00,14.0
2019-11-18 13:01:00+00,14.0
2019-11-18 13:01:40+00,14.0
2019-11-18 13:02:10+00,13.0
2019-11-18 13:04:30+00,13.0
2019-11-18 13:05:00+00,14.0
2019-11-18 13:05:30+00,14.0
2019-11-18 13:06:00+00,13.0
2019-11-18 13:10:40+00,13.0
2019-11-18 13:11:10+00,12.0
2019-11-18 13:11:40+00,12.0
2019-11-18 15:09:30+00,14.0
2019-11-18 15:10:00+00,15.0
2019-11-18 15:10:30+00,15.0
2019-11-18 15:11:00+00,15.0
2019-11-18 15:11:40+00,15.0
2019-11-18 15:12:10+00,16.0
2019-11-18 15:12:40+00,16.0
2019-11-18 15:13:10+00,15.0
2019-11-18 15:13:40+00,15.0
2019-11-18 15:14:10+00,14.0
2019-11-18 15:14:40+00,14.0
2019-11-18 15:15:40+00,13.0
2019-11-18 15:16:10+00,14.0
2019-11-18 15:16:50+00,14.0
2019-11-18 15:17:20+00,16.0
2019-11-18 15:17:50+00,16.0
2019-11-18 15:18:50+00,17.0
2019-11-18 15:19:20+00,16.0
2019-11-18 15:19:50+00,16.0
2019-11-18 15:20:20+00,16.0
2019-11-18 15:20:50+00,16.0
2019-11-18 15:21:20+00,15.0
2019-11-18 15:22:30+00,14.0
2019-11-18 15:23:00+00,14.0
2019-11-18 15:23:30+00,14.0
2019-11-18 15:24:00+00,17.0
2019-11-18 15:24:30+00,17.0
2019-11-18 15:25:00+00,15.0
2019-11-18 15:25:30+00,15.0
2019-11-18 15:26:00+00,14.0
2019-11-18 15:26:30+00,14.0
2019-11-18 15:27:00+00,16.0
2019-11-18 15:27:40+00,16.0
2019-11-18 15:28:10+00,15.0
2019-11-18 15:28:40+00,15.0
2019-11-18 15:29:10+00,15.0
2019-11-18 15:29:40+00,15.0
2019-11-18 15:30:10+00,15.0
2019-11-18 15:30:40+00,15.0
2019-11-18 15:31:10+00,15.0
2019-11-18 15:31:40+00,15.0
2019-11-18 15:32:10+00,15.0
2019-11-18 15:32:50+00,15.0
2019-11-18 15:33:20+00,15.0
2019-11-18 15:33:50+00,15.0
2019-11-18 15:35:20+00,14.0
2019-11-18 15:35:50+00,14.0
2019-11-18 15:36:20+00,15.0
2019-11-18 15:36:50+00,15.0
2019-11-18 15:37:20+00,15.0
2019-11-18 15:38:00+00,15.0
2019-11-18 15:38:30+00,15.0
2019-11-18 15:39:00+00,15.0
2019-11-18 15:39:30+00,15.0
2019-11-18 15:40:00+00,15.0
2019-11-18 15:40:30+00,15.0
2019-11-18 15:42:00+00,15.0
2019-11-18 15:42:30+00,15.0
2019-11-18 15:43:00+00,15.0
2019-11-18 15:43:40+00,15.0
2019-11-18 15:44:10+00,15.0
2019-11-18 15:44:40+00,15.0
2019-11-18 15:45:10+00,15.0
2019-11-18 15:45:40+00,15.0
2019-11-18 15:46:10+00,16.0
2019-11-18 15:47:10+00,15.0
2019-11-18 15:47:40+00,15.0
2019-11-18 15:48:40+00,13.0
2019-11-18 15:49:10+00,14.0
2019-11-18 15:49:40+00,14.0
2019-11-18 15:50:10+00,15.0
2019-11-18 15:50:40+00,15.0
2019-11-18 15:51:10+00,14.0
2019-11-18 15:51:40+00,14.0
2019-11-18 15:52:20+00,15.0
2019-11-18 15:52:50+00,15.0
2019-11-18 15:53:20+00,14.0
2019-11-18 15:53:50+00,14.0
2019-11-18 15:54:50+00,16.0
2019-11-18 15:55:20+00,14.0
2019-11-18 15:55:50+00,14.0
2019-11-18 15:56:20+00,15.0
2019-11-18 15:56:50+00,15.0
2019-11-18 15:57:30+00,15.0
2019-11-18 15:58:00+00,14.0
2019-11-18 15:58:30+00,14.0
2019-11-18 15:59:00+00,16.0
2019-11-18 15:59:30+00,16.0
2019-11-19 09:01:10+00,18.0
2019-11-19 09:01:50+00,18.0
2019-11-19 09:02:20+00,18.0
2019-11-19 09:03:50+00,20.0
2019-11-19 09:04:20+00,22.0
2019-11-19 09:04:50+00,22.0
2019-11-19 09:05:20+00,19.0
2019-11-19 09:05:50+00,19.0
2019-11-19 09:07:00+00,17.0
2019-11-19 09:07:30+00,17.0
2019-11-19 09:08:00+00,18.0
2019-11-19 09:08:30+00,18.0
2019-11-19 09:09:00+00,19.0
2019-11-19 09:09:30+00,19.0
2019-11-19 09:10:00+00,19.0
2019-11-19 09:13:40+00,15.0
2019-11-19 09:14:30+00,17.0
2019-11-19 09:15:00+00,15.0
2019-11-19 09:15:30+00,15.0
2019-11-19 09:20:50+00,15.0
2019-11-19 09:21:20+00,17.0
2019-11-19 09:21:50+00,17.0
2019-11-20 09:00:20+00,14.0
2019-11-20 09:01:00+00,11.0
2019-11-20 09:01:30+00,11.0
2019-11-20 09:02:00+00,15.0
2019-11-20 09:02:30+00,15.0
2019-11-20 09:03:00+00,14.0
2019-11-20 09:03:30+00,14.0
2019-11-20 09:04:00+00,13.0
2019-11-20 09:04:30+00,13.0
2019-11-20 09:05:00+00,14.0
2019-11-20 09:05:30+00,14.0
2019-11-20 09:06:00+00,13.0
2019-11-20 09:06:40+00,13.0
2019-11-20 09:07:10+00,13.0
2019-11-20 09:07:40+00,13.0
2019-11-20 09:08:10+00,12.0
2019-11-20 09:08:40+00,12.0
2019-11-20 09:09:10+00,12.0
2019-11-20 09:09:40+00,12.0
2019-11-20 09:10:40+00,15.0
2019-11-20 09:11:10+00,12.0
2019-11-20 09:11:40+00,12.0
2019-11-20 09:12:50+00,15.0
2019-11-20 09:13:20+00,14.0
2019-11-20 09:13:50+00,14.0
2019-11-20 09:14:20+00,13.0
2019-11-20 09:14:50+00,13.0
2019-11-20 09:15:20+00,15.0
2019-11-20 09:15:50+00,15.0
2019-11-20 09:16:20+00,13.0
2019-11-20 09:16:50+00,13.0
2019-11-20 09:17:30+00,13.0
2019-11-20 09:18:00+00,13.0
2019-11-20 09:18:30+00,13.0
2019-11-20 09:19:00+00,13.0
2019-11-20 09:19:30+00,13.0
2019-11-20 09:20:00+00,13.0
2019-11-20 09:20:30+00,13.0
2019-11-20 09:22:30+00,12.0
2019-11-20 09:23:00+00,13.0
2019-11-20 09:23:30+00,13.0
2019-11-20 09:24:00+00,14.0
2019-11-20 09:24:40+00,14.0
2019-11-20 09:25:10+00,13.0
2019-11-20 09:25:40+00,13.0
2019-11-20 09:26:10+00,14.0
2019-11-20 09:26:40+00,14.0
2019-11-20 09:27:10+00,12.0
2019-11-20 09:27:40+00,12.0
2019-11-20 09:28:10+00,12.0
2019-11-20 09:28:40+00,12.0
2019-11-20 09:29:10+00,12.0
2019-11-20 09:29:40+00,12.0
2019-11-20 09:30:10+00,12.0
2019-11-20 09:30:40+00,12.0
2019-11-20 09:31:10+00,13.0
2019-11-20 09:32:40+00,13.0
2019-11-20 09:33:10+00,11.0
2019-11-20 09:33:40+00,11.0
2019-11-20 09:34:10+00,13.0
2019-11-20 09:34:50+00,13.0
2019-11-20 09:35:50+00,11.0
2019-11-20 09:36:20+00,12.0
2019-11-20 09:36:50+00,12.0
2019-11-20 09:37:20+00,13.0
2019-11-20 09:37:50+00,13.0
2019-11-20 09:38:20+00,15.0
2019-11-20 09:38:50+00,15.0
2019-11-20 09:39:20+00,11.0
2019-11-20 09:39:50+00,11.0
2019-11-20 09:40:20+00,12.0
2019-11-20 09:40:50+00,12.0
2019-11-20 09:41:20+00,13.0
2019-11-20 09:41:50+00,13.0
2019-11-20 09:42:20+00,12.0
2019-11-20 09:42:50+00,12.0
2019-11-20 09:43:20+00,13.0
2019-11-20 09:43:50+00,13.0
2019-11-20 09:44:20+00,12.0
2019-11-20 09:45:00+00,11.0
2019-11-20 09:45:30+00,11.0
2019-11-20 09:46:00+00,12.0
2019-11-20 09:46:30+00,12.0
2019-11-20 09:47:00+00,13.0
2019-11-20 09:47:30+00,13.0
2019-11-20 09:48:00+00,11.0
2019-11-20 09:48:30+00,11.0
2019-11-20 09:49:00+00,14.0
2019-11-20 09:49:30+00,14.0
2019-11-20 09:50:00+00,14.0
2019-11-20 09:50:30+00,14.0
2019-11-20 09:51:00+00,12.0
2019-11-20 09:51:30+00,12.0
2019-11-20 09:52:00+00,10.0
2019-11-20 09:52:30+00,10.0
2019-11-20 09:53:00+00,12.0
2019-11-20 09:53:30+00,12.0
2019-11-20 09:54:00+00,12.0
2019-11-20 09:54:30+00,12.0
2019-11-20 09:55:10+00,14.0
2019-11-20 09:55:40+00,14.0
2019-11-20 09:56:10+00,12.0
2019-11-20 09:56:40+00,12.0
2019-11-20 09:57:10+00,12.0
2019-11-20 09:57:40+00,12.0
2019-11-20 09:58:10+00,12.0
2019-11-20 09:58:50+00,12.0
2019-11-20 10:03:40+00,13.0
2019-11-20 10:39:40+00,12.0
2019-11-20 10:40:10+00,12.0
2019-11-20 10:40:40+00,12.0
2019-11-20 10:42:20+00,11.0
2019-11-20 10:42:50+00,11.0
2019-11-20 10:43:20+00,12.0
2019-11-20 10:43:50+00,12.0
2019-11-20 11:29:10+00,11.0
2019-11-20 11:29:40+00,11.0
2019-11-20 11:30:10+00,11.0
2019-11-20 11:30:40+00,11.0
2019-11-20 11:31:20+00,9.0
2019-11-20 11:31:50+00,9.0
2019-11-20 11:32:20+00,13.0
2019-11-20 11:32:50+00,13.0
2019-11-20 11:33:20+00,11.0
2019-11-20 11:33:50+00,11.0
2019-11-20 11:34:20+00,11.0
2019-11-20 11:34:50+00,11.0
2019-11-20 11:35:20+00,11.0
2019-11-20 12:14:20+00,10.0
2019-11-20 12:14:50+00,10.0
2019-11-20 12:15:20+00,10.0
2019-11-20 12:15:50+00,10.0
2019-11-20 12:16:20+00,11.0
2019-11-20 12:16:50+00,11.0
2019-11-20 12:17:30+00,11.0
2019-11-20 12:18:20+00,10.0
2019-11-20 12:18:50+00,10.0
2019-11-20 12:19:20+00,10.0
2019-11-20 12:19:50+00,10.0
2019-11-20 12:20:30+00,9.0
2019-11-20 12:21:30+00,8.0
2019-11-20 12:22:00+00,11.0
2019-11-20 12:22:30+00,11.0
2019-11-20 12:23:00+00,12.0
2019-11-20 12:25:30+00,9.0
2019-11-20 12:26:00+00,8.0
2019-11-20 12:26:30+00,8.0
2019-11-20 12:27:00+00,7.0
2019-11-20 12:27:40+00,7.0
2019-11-20 12:28:10+00,10.0
2019-11-20 12:28:40+00,10.0
2019-11-20 12:29:10+00,10.0
2019-11-20 12:29:40+00,10.0
2019-11-20 12:30:10+00,8.0
2019-11-20 12:30:40+00,8.0
2019-11-20 12:31:10+00,11.0
2019-11-20 12:31:50+00,11.0
2019-11-20 12:32:20+00,10.0
2019-11-20 12:33:00+00,9.0
2019-11-20 12:33:30+00,9.0
2019-11-20 12:34:00+00,9.0
2019-11-20 12:34:30+00,9.0
2019-11-20 12:35:00+00,9.0
2019-11-20 12:35:30+00,9.0
2019-11-20 12:36:00+00,9.0
2019-11-20 12:36:30+00,9.0
2019-11-20 12:40:00+00,11.0
2019-11-20 12:40:30+00,11.0
2019-11-20 12:41:00+00,9.0
2019-11-20 12:41:40+00,9.0
2019-11-20 12:42:10+00,10.0
2019-11-20 12:42:40+00,10.0
2019-11-20 12:43:10+00,10.0
2019-11-20 12:43:40+00,10.0
2019-11-20 12:44:10+00,10.0
2019-11-20 12:44:40+00,10.0
2019-11-20 12:45:10+00,9.0
2019-11-20 12:45:40+00,9.0
2019-11-20 12:46:10+00,9.0
2019-11-20 12:46:50+00,9.0
2019-11-20 12:47:20+00,9.0
2019-11-20 12:47:50+00,9.0
2019-11-20 12:48:20+00,10.0
2019-11-20 12:48:50+00,10.0
2019-11-20 12:49:20+00,9.0
2019-11-20 12:49:50+00,9.0
2019-11-20 12:51:20+00,11.0
2019-11-20 12:52:00+00,7.0
2019-11-20 12:52:30+00,7.0
2019-11-20 12:53:00+00,9.0
2019-11-20 12:53:30+00,9.0
2019-11-20 12:54:00+00,11.0
2019-11-20 12:54:30+00,11.0
2019-11-20 12:55:00+00,8.0
2019-11-20 12:55:30+00,8.0
2019-11-20 12:56:00+00,10.0
2019-11-20 12:56:30+00,10.0
2019-11-20 12:57:00+00,10.0
2019-11-20 12:57:30+00,10.0
2019-11-20 12:58:10+00,10.0
2019-11-20 12:58:40+00,10.0
2019-11-20 12:59:10+00,9.0
2019-11-20 12:59:40+00,9.0
2019-11-20 13:00:10+00,10.0
2019-11-20 13:00:40+00,10.0
2019-11-20 13:02:10+00,9.0
2019-11-20 13:02:40+00,9.0
2019-11-20 13:03:10+00,9.0
2019-11-20 13:03:40+00,9.0
2019-11-20 13:04:10+00,10.0
2019-11-20 13:04:40+00,10.0
2019-11-20 13:05:10+00,10.0
2019-11-20 13:05:40+00,10.0
2019-11-20 13:06:10+00,8.0
2019-11-20 13:06:40+00,8.0
2019-11-20 13:07:10+00,8.0
2019-11-20 13:07:40+00,8.0
2019-11-20 13:08:20+00,9.0
2019-11-20 13:08:50+00,9.0
2019-11-20 13:09:20+00,9.0
2019-11-20 13:09:50+00,9.0
2019-11-20 13:10:20+00,10.0
2019-11-20 13:10:50+00,10.0
2019-11-20 13:11:20+00,10.0
2019-11-20 13:11:50+00,10.0
2019-11-20 13:12:20+00,11.0
2019-11-20 13:12:50+00,11.0
2019-11-20 13:13:20+00,11.0
2019-11-20 13:13:50+00,11.0
2019-11-20 13:14:20+00,9.0
2019-11-20 13:14:50+00,9.0
2019-11-20 13:15:20+00,9.0
2019-11-20 13:15:50+00,9.0
2019-11-20 13:16:20+00,10.0
2019-11-20 13:16:50+00,10.0
2019-11-20 13:17:20+00,9.0
2019-11-20 13:17:50+00,9.0
2019-11-20 13:18:30+00,8.0
2019-11-20 13:19:00+00,10.0
2019-11-20 13:19:30+00,10.0
2019-11-20 13:20:00+00,10.0
2019-11-20 13:20:30+00,10.0
2019-11-20 13:21:30+00,8.0
2019-11-20 13:22:00+00,10.0
2019-11-20 13:22:30+00,10.0
2019-11-20 13:23:00+00,8.0
2019-11-20 13:23:30+00,8.0
2019-11-20 13:24:00+00,10.0
2019-11-20 13:32:10+00,10.0
2019-11-20 13:32:40+00,10.0
2019-11-20 13:33:10+00,9.0
2019-11-20 13:33:40+00,9.0
2019-11-20 13:34:10+00,8.0
2019-11-20 13:34:40+00,8.0
2019-11-20 13:35:20+00,8.0
2019-11-20 13:35:50+00,8.0
2019-11-20 13:36:20+00,8.0
2019-11-20 13:36:50+00,8.0
2019-11-20 13:37:20+00,8.0
2019-11-20 13:37:50+00,8.0
2019-11-20 13:38:20+00,8.0
2019-11-20 13:38:50+00,8.0
2019-11-20 13:39:20+00,8.0
2019-11-20 13:39:50+00,8.0
2019-11-20 13:40:30+00,8.0
2019-11-20 13:41:00+00,8.0
2019-11-20 13:41:30+00,8.0
2019-11-20 13:42:00+00,8.0
2019-11-20 13:42:30+00,8.0
2019-11-20 13:44:30+00,9.0
2019-11-20 13:45:00+00,9.0
2019-11-20 13:45:40+00,9.0
2019-11-20 13:46:10+00,8.0
2019-11-20 13:46:40+00,8.0
2019-11-20 13:47:40+00,8.0
2019-11-20 13:48:10+00,8.0
2019-11-20 13:48:50+00,8.0
2019-11-20 13:49:20+00,8.0
2019-11-20 13:49:50+00,8.0
2019-11-20 13:50:20+00,8.0
2019-11-20 13:50:50+00,8.0
2019-11-20 13:51:20+00,8.0
2019-11-20 13:51:50+00,8.0
2019-11-20 13:52:30+00,8.0
2019-11-20 13:54:00+00,9.0
2019-11-20 13:54:30+00,9.0
2019-11-20 13:55:00+00,8.0
2019-11-20 13:55:30+00,8.0
2019-11-20 13:56:00+00,8.0
2019-11-20 13:56:30+00,8.0
2019-11-20 13:57:30+00,10.0
2019-11-20 13:58:00+00,8.0
2019-11-20 13:58:30+00,8.0
2019-11-20 13:59:10+00,8.0
2019-11-20 13:59:40+00,8.0
2019-11-20 14:00:10+00,9.0
2019-11-20 14:00:50+00,9.0
2019-11-20 14:01:20+00,9.0
2019-11-20 14:01:50+00,9.0
2019-11-20 14:02:50+00,9.0
2019-11-20 14:03:20+00,8.0
2019-11-20 14:05:40+00,9.0
2019-11-20 14:06:10+00,8.0
2019-11-20 14:06:40+00,8.0
2019-11-20 14:07:40+00,7.0
2019-11-20 14:08:10+00,10.0
2019-11-20 14:08:40+00,10.0
2019-11-20 14:09:10+00,8.0
2019-11-20 14:09:50+00,8.0
2019-11-20 14:10:20+00,7.0
2019-11-20 14:11:40+00,8.0
2019-11-20 14:12:10+00,9.0
2019-11-20 14:12:40+00,9.0
2019-11-20 14:13:10+00,8.0
2019-11-20 14:13:40+00,8.0
2019-11-20 14:14:10+00,7.0
2019-11-20 14:14:50+00,7.0
2019-11-20 14:15:20+00,8.0
2019-11-20 14:15:50+00,8.0
2019-11-20 14:16:20+00,9.0
2019-11-20 14:16:50+00,9.0
2019-11-20 14:17:20+00,8.0
2019-11-20 14:17:50+00,8.0
2019-11-20 14:18:20+00,9.0
2019-11-20 14:18:50+00,9.0
2019-11-20 14:19:20+00,7.0
2019-11-20 14:20:00+00,9.0
2019-11-20 14:20:30+00,9.0
2019-11-20 14:21:00+00,8.0
2019-11-20 14:21:30+00,8.0
2019-11-20 14:22:00+00,8.0
2019-11-20 14:22:30+00,8.0
2019-11-20 14:23:00+00,9.0
2019-11-20 14:23:30+00,9.0
2019-11-20 14:24:00+00,10.0
2019-11-20 14:24:30+00,10.0
2019-11-20 14:25:00+00,8.0
2019-11-20 14:25:30+00,8.0
2019-11-20 14:26:00+00,7.0
2019-11-20 14:26:30+00,7.0
2019-11-20 14:27:00+00,8.0
2019-11-20 14:27:40+00,8.0
2019-11-20 14:28:10+00,8.0
2019-11-20 14:28:40+00,8.0
2019-11-20 14:29:10+00,7.0
2019-11-20 14:29:40+00,7.0
2019-11-20 14:30:10+00,8.0
2019-11-20 14:30:40+00,8.0
2019-11-20 14:31:10+00,9.0
2019-11-20 14:31:40+00,9.0
2019-11-20 14:32:20+00,8.0
2019-11-20 14:32:50+00,8.0
2019-11-20 14:33:20+00,7.0
2019-11-20 14:33:50+00,7.0
2019-11-20 14:34:20+00,9.0
2019-11-20 15:06:00+00,7.0
2019-11-21 09:00:20+00,10.0
2019-11-21 09:03:00+00,9.0
2019-11-21 09:03:30+00,9.0
2019-11-21 09:04:00+00,9.0
2019-11-21 09:04:30+00,9.0
2019-11-21 09:05:00+00,9.0
2019-11-21 09:05:30+00,9.0
2019-11-21 09:06:30+00,11.0
2019-11-21 09:07:40+00,11.0
2019-11-21 09:08:10+00,9.0
2019-11-21 09:08:40+00,9.0
2019-11-21 09:09:10+00,10.0
2019-11-21 09:09:40+00,10.0
2019-11-21 09:10:10+00,8.0
2019-11-21 09:10:40+00,8.0
2019-11-21 09:11:10+00,7.0
2019-11-21 09:11:40+00,7.0
2019-11-21 09:12:30+00,11.0
2019-11-21 09:13:00+00,10.0
2019-11-21 09:13:30+00,10.0
2019-11-21 09:14:00+00,11.0
2019-11-21 09:14:30+00,11.0
2019-11-21 09:15:00+00,11.0
2019-11-21 09:15:30+00,11.0
2019-11-21 09:16:00+00,12.0
2019-11-21 09:16:30+00,12.0
2019-11-21 09:17:40+00,9.0
2019-11-21 09:18:10+00,11.0
2019-11-21 09:18:40+00,11.0
2019-11-21 09:19:10+00,11.0
2019-11-21 09:19:40+00,11.0
2019-11-21 09:20:10+00,11.0
2019-11-21 09:20:40+00,11.0
2019-11-21 09:21:10+00,9.0
2019-11-21 09:21:40+00,9.0
2019-11-21 09:22:10+00,9.0
2019-11-21 09:22:40+00,9.0
2019-11-21 09:23:10+00,11.0
2019-11-21 09:23:50+00,11.0
2019-11-21 09:24:20+00,11.0
2019-11-21 09:24:50+00,11.0
2019-11-21 09:25:20+00,10.0
2019-11-21 09:25:50+00,10.0
2019-11-21 09:26:20+00,11.0
2019-11-21 09:26:50+00,11.0
2019-11-21 09:27:20+00,11.0
2019-11-21 09:27:50+00,11.0
2019-11-21 09:29:30+00,10.0
2019-11-21 09:30:00+00,11.0
2019-11-21 09:30:30+00,11.0
2019-11-21 09:31:00+00,9.0
2019-11-21 09:31:30+00,9.0
2019-11-21 09:32:00+00,10.0
2019-11-21 09:32:30+00,10.0
2019-11-21 09:33:00+00,10.0
2019-11-21 09:33:30+00,10.0
2019-11-21 09:34:30+00,12.0
2019-11-21 09:35:40+00,13.0
2019-11-21 09:36:10+00,10.0
2019-11-21 09:36:40+00,10.0
2019-11-21 09:37:10+00,9.0
2019-11-21 09:37:40+00,9.0
2019-11-21 09:38:10+00,11.0
2019-11-21 09:38:40+00,11.0
2019-11-21 09:39:10+00,9.0
2019-11-21 09:39:40+00,9.0
2019-11-21 09:40:20+00,10.0
2019-11-21 09:40:50+00,10.0
2019-11-21 09:41:20+00,11.0
2019-11-21 09:41:50+00,11.0
2019-11-21 09:42:20+00,12.0
2019-11-21 09:42:50+00,12.0
2019-11-21 09:43:20+00,11.0
2019-11-21 09:43:50+00,11.0
2019-11-21 09:44:20+00,10.0
2019-11-21 09:44:50+00,10.0
2019-11-21 09:45:20+00,11.0
2019-11-21 09:46:30+00,13.0
2019-11-21 09:47:00+00,12.0
2019-11-21 09:47:30+00,12.0
2019-11-21 09:48:00+00,10.0
2019-11-21 09:48:30+00,10.0
2019-11-21 09:49:00+00,10.0
2019-11-21 09:49:30+00,10.0
2019-11-21 09:50:00+00,9.0
2019-11-21 09:50:30+00,9.0
2019-11-21 09:51:10+00,10.0
2019-11-21 09:51:40+00,10.0
2019-11-21 09:53:10+00,11.0
2019-11-21 09:53:40+00,11.0
2019-11-21 09:54:10+00,11.0
2019-11-21 09:54:40+00,11.0
2019-11-21 09:55:10+00,11.0
2019-11-21 09:55:40+00,11.0
2019-11-21 09:56:10+00,10.0
2019-11-21 09:56:40+00,10.0
2019-11-21 09:57:10+00,12.0
2019-11-21 09:57:40+00,12.0
2019-11-21 09:58:10+00,10.0
2019-11-21 09:58:50+00,10.0
2019-11-21 09:59:50+00,8.0
2019-11-21 10:00:20+00,10.0
2019-11-21 10:00:50+00,10.0
2019-11-21 10:01:20+00,9.0
2019-11-21 10:01:50+00,9.0
2019-11-21 10:02:20+00,11.0
2019-11-21 10:02:50+00,11.0
2019-11-21 10:03:20+00,10.0
2019-11-21 10:04:00+00,10.0
2019-11-21 10:04:30+00,10.0
2019-11-21 10:05:30+00,12.0
2019-11-21 10:06:00+00,9.0
2019-11-21 10:06:30+00,9.0
2019-11-21 10:07:00+00,9.0
2019-11-21 10:07:30+00,9.0
2019-11-21 10:08:00+00,10.0
2019-11-21 10:08:30+00,10.0
2019-11-21 10:09:00+00,11.0
2019-11-21 10:09:40+00,11.0
2019-11-21 10:11:10+00,10.0
2019-11-21 10:11:40+00,10.0
2019-11-21 10:12:10+00,10.0
2019-11-21 10:12:40+00,10.0
2019-11-21 10:13:10+00,10.0
2019-11-21 10:13:40+00,10.0
2019-11-21 10:14:10+00,10.0
2019-11-21 10:14:50+00,10.0
2019-11-21 10:16:20+00,11.0
2019-11-21 10:16:50+00,11.0
2019-11-21 10:17:20+00,12.0
2019-11-21 10:17:50+00,12.0
2019-11-21 10:18:20+00,11.0
2019-11-21 10:18:50+00,11.0
2019-11-21 10:19:20+00,7.0
2019-11-21 10:20:00+00,9.0
2019-11-21 10:20:30+00,9.0
2019-11-21 10:21:00+00,13.0
2019-11-21 10:21:30+00,13.0
2019-11-21 10:22:00+00,10.0
2019-11-21 10:22:30+00,10.0
2019-11-21 10:23:00+00,11.0
2019-11-21 10:23:30+00,11.0
2019-11-21 10:24:00+00,11.0
2019-11-21 10:24:30+00,11.0
2019-11-21 10:25:10+00,12.0
2019-11-21 10:25:40+00,12.0
2019-11-21 10:26:10+00,13.0
2019-11-21 10:26:40+00,13.0
2019-11-21 10:27:10+00,12.0
2019-11-21 10:27:40+00,12.0
2019-11-21 10:28:10+00,12.0
2019-11-21 10:28:40+00,12.0
2019-11-21 10:29:40+00,10.0
2019-11-21 10:30:10+00,12.0
2019-11-21 10:30:50+00,12.0
2019-11-21 10:31:20+00,10.0
2019-11-21 10:31:50+00,10.0
2019-11-21 10:32:20+00,11.0
2019-11-21 10:32:50+00,11.0
2019-11-21 10:33:20+00,8.0
2019-11-21 10:33:50+00,8.0
2019-11-21 10:34:20+00,11.0
2019-11-21 10:35:40+00,14.0
2019-11-21 10:36:10+00,12.0
2019-11-21 10:36:40+00,12.0
2019-11-21 10:37:10+00,12.0
2019-11-21 10:37:40+00,12.0
2019-11-21 10:38:10+00,9.0
2019-11-21 10:38:40+00,9.0
2019-11-21 10:39:10+00,11.0
2019-11-21 10:39:40+00,11.0
2019-11-21 10:40:20+00,12.0
2019-11-21 10:41:30+00,11.0
2019-11-21 10:42:00+00,13.0
2019-11-21 10:42:30+00,13.0
2019-11-21 10:43:00+00,13.0
2019-11-21 10:43:40+00,13.0
2019-11-21 10:44:10+00,12.0
2019-11-21 10:44:40+00,12.0
2019-11-21 10:45:40+00,9.0
2019-11-21 10:46:10+00,12.0
2019-11-21 10:46:40+00,12.0
2019-11-21 10:47:10+00,11.0
2019-11-21 10:47:40+00,11.0
2019-11-21 10:48:20+00,12.0
2019-11-21 10:51:00+00,13.0
2019-11-21 10:51:30+00,13.0
2019-11-21 10:54:00+00,14.0
2019-11-21 10:54:30+00,14.0
2019-11-21 10:55:00+00,12.0
2019-11-21 10:55:30+00,12.0
2019-11-21 10:56:10+00,11.0
2019-11-21 10:56:40+00,11.0
2019-11-21 10:57:10+00,13.0
2019-11-21 10:59:30+00,11.0
2019-11-21 11:00:00+00,10.0
2019-11-21 11:00:30+00,10.0
2019-11-21 11:01:00+00,10.0
2019-11-21 11:01:40+00,10.0
2019-11-21 11:02:10+00,11.0
2019-11-21 11:02:40+00,11.0
2019-11-21 11:03:10+00,10.0
2019-11-21 11:03:40+00,10.0
2019-11-21 11:04:10+00,11.0
2019-11-21 11:04:40+00,11.0
2019-11-21 11:05:10+00,11.0
2019-11-21 11:05:40+00,11.0
2019-11-21 11:06:10+00,11.0
2019-11-21 11:06:50+00,11.0
2019-11-21 11:08:20+00,12.0
2019-11-21 11:08:50+00,12.0
2019-11-21 11:09:20+00,11.0
2019-11-21 11:09:50+00,11.0
2019-11-21 11:10:20+00,9.0
2019-11-21 11:10:50+00,9.0
2019-11-21 11:11:20+00,11.0
2019-11-21 11:12:00+00,11.0
2019-11-21 11:12:30+00,11.0
2019-11-21 11:13:00+00,12.0
2019-11-21 11:13:30+00,12.0
2019-11-21 11:14:00+00,12.0
2019-11-21 11:14:30+00,12.0
2019-11-21 11:15:00+00,14.0
2019-11-21 11:15:30+00,14.0
2019-11-21 11:16:00+00,14.0
2019-11-21 11:16:30+00,14.0
2019-11-21 11:17:00+00,14.0
2019-11-21 11:17:30+00,14.0
2019-11-21 11:18:10+00,12.0
2019-11-21 11:18:40+00,12.0
2019-11-21 11:20:10+00,11.0
2019-11-21 11:20:40+00,11.0
2019-11-21 11:21:10+00,8.0
2019-11-21 11:21:40+00,8.0
2019-11-21 11:22:10+00,12.0
2019-11-21 11:22:40+00,12.0
2019-11-21 11:23:10+00,11.0
2019-11-21 11:23:50+00,11.0
2019-11-21 11:24:20+00,12.0
2019-11-21 11:25:20+00,10.0
2019-11-21 11:25:50+00,10.0
2019-11-21 11:26:30+00,11.0
2019-11-21 11:27:00+00,10.0
2019-11-21 11:27:30+00,10.0
2019-11-21 11:28:30+00,11.0
2019-11-21 11:29:00+00,11.0
2019-11-21 11:29:40+00,11.0
2019-11-21 11:30:10+00,9.0
2019-11-21 11:30:40+00,9.0
2019-11-21 11:31:10+00,10.0
2019-11-21 11:31:40+00,10.0
2019-11-21 11:32:40+00,12.0
2019-11-21 11:33:10+00,11.0
2019-11-21 11:33:40+00,11.0
2019-11-21 11:34:10+00,13.0
2019-11-21 11:34:50+00,13.0
2019-11-21 11:35:20+00,11.0
2019-11-21 11:35:50+00,11.0
2019-11-21 11:36:20+00,11.0
2019-11-21 11:36:50+00,11.0
2019-11-21 11:37:20+00,10.0
2019-11-21 11:37:50+00,10.0
2019-11-21 11:38:20+00,9.0
2019-11-21 11:38:50+00,9.0
2019-11-21 11:39:20+00,10.0
2019-11-21 11:40:00+00,10.0
2019-11-21 11:40:30+00,10.0
2019-11-21 11:41:00+00,10.0
2019-11-21 11:43:50+00,13.0
2019-11-21 11:44:20+00,10.0
2019-11-21 11:45:00+00,8.0
2019-11-21 11:45:30+00,8.0
2019-11-21 11:46:00+00,11.0
2019-11-21 11:46:30+00,11.0
2019-11-21 11:47:00+00,12.0
2019-11-21 11:47:30+00,12.0
2019-11-21 11:48:00+00,8.0
2019-11-21 11:48:30+00,8.0
2019-11-21 11:49:00+00,11.0
2019-11-21 11:49:30+00,11.0
2019-11-21 11:50:00+00,10.0
2019-11-21 11:50:40+00,10.0
2019-11-21 11:51:10+00,11.0
2019-11-21 11:51:40+00,11.0
2019-11-21 11:52:10+00,12.0
2019-11-21 11:52:40+00,12.0
2019-11-21 11:54:10+00,11.0
2019-11-21 11:54:40+00,11.0
2019-11-21 11:55:10+00,12.0
2019-11-21 11:55:50+00,12.0
2019-11-21 11:56:20+00,11.0
2019-11-21 11:56:50+00,11.0
2019-11-21 11:57:20+00,9.0
2019-11-21 11:57:50+00,9.0
2019-11-21 11:58:20+00,10.0
2019-11-21 11:58:50+00,10.0
2019-11-21 11:59:20+00,13.0
2019-11-21 11:59:50+00,13.0
2019-11-21 12:00:20+00,9.0
2019-11-21 12:01:00+00,10.0
2019-11-21 12:01:30+00,10.0
2019-11-21 12:02:00+00,10.0
2019-11-21 12:02:30+00,10.0
2019-11-21 12:03:00+00,10.0
2019-11-21 12:03:30+00,10.0
2019-11-21 12:04:00+00,12.0
2019-11-21 12:04:30+00,12.0
2019-11-21 12:05:00+00,10.0
2019-11-21 12:05:30+00,10.0
2019-11-21 12:06:00+00,9.0
2019-11-21 12:06:30+00,9.0
2019-11-21 12:07:10+00,11.0
2019-11-21 12:07:40+00,11.0
2019-11-21 12:08:10+00,12.0
2019-11-21 12:08:40+00,12.0
2019-11-21 12:09:10+00,9.0
2019-11-21 12:09:40+00,9.0
2019-11-21 12:10:10+00,10.0
2019-11-21 12:10:40+00,10.0
2019-11-21 12:11:10+00,10.0
2019-11-21 12:11:40+00,10.0
2019-11-21 12:12:10+00,10.0
2019-11-21 12:12:40+00,10.0
2019-11-21 12:13:10+00,9.0
2019-11-21 12:13:40+00,9.0
2019-11-21 12:14:20+00,9.0
2019-11-21 12:14:50+00,9.0
2019-11-21 12:15:50+00,8.0
2019-11-21 12:16:50+00,11.0
2019-11-21 12:17:20+00,11.0
2019-11-21 12:17:50+00,11.0
2019-11-21 12:18:30+00,10.0
2019-11-21 12:19:00+00,9.0
2019-11-21 12:19:30+00,9.0
2019-11-21 12:20:00+00,10.0
2019-11-21 12:20:30+00,10.0
2019-11-21 12:21:20+00,9.0
2019-11-21 12:21:50+00,9.0
2019-11-21 12:22:20+00,8.0
2019-11-21 12:22:50+00,8.0
2019-11-21 12:23:50+00,11.0
2019-11-21 12:25:00+00,10.0
2019-11-21 12:25:30+00,10.0
2019-11-21 12:26:00+00,9.0
2019-11-21 12:26:30+00,9.0
2019-11-21 12:27:00+00,13.0
2019-11-21 12:27:30+00,13.0
2019-11-21 12:28:00+00,11.0
2019-11-21 12:28:30+00,11.0
2019-11-21 12:29:00+00,11.0
2019-11-21 12:29:40+00,11.0
2019-11-21 12:30:10+00,9.0
2019-11-21 12:30:40+00,9.0
2019-11-21 12:31:40+00,7.0
2019-11-21 12:32:10+00,9.0
2019-11-21 12:32:40+00,9.0
2019-11-21 12:33:10+00,8.0
2019-11-21 12:33:40+00,8.0
2019-11-21 12:34:10+00,10.0
2019-11-21 12:34:50+00,10.0
2019-11-21 12:35:20+00,12.0
2019-11-21 12:35:50+00,12.0
2019-11-21 12:36:20+00,8.0
2019-11-21 12:36:50+00,8.0
2019-11-21 12:37:50+00,8.0
2019-11-21 12:38:20+00,12.0
2019-11-21 12:38:50+00,12.0
2019-11-21 12:39:20+00,11.0
2019-11-21 12:48:00+00,9.0
2019-11-21 12:48:40+00,9.0
2019-11-21 12:49:10+00,11.0
2019-11-21 12:49:40+00,11.0
2019-11-21 12:50:10+00,10.0
2019-11-21 12:50:40+00,10.0
2019-11-21 12:51:10+00,8.0
2019-11-21 12:51:40+00,8.0
2019-11-21 12:52:10+00,11.0
2019-11-21 12:52:40+00,11.0
2019-11-21 12:53:10+00,9.0
2019-11-21 12:53:40+00,9.0
2019-11-21 12:54:20+00,10.0
2019-11-21 12:54:50+00,10.0
2019-11-21 12:55:20+00,12.0
2019-11-21 12:55:50+00,12.0
2019-11-21 12:56:20+00,10.0
2019-11-21 12:56:50+00,10.0
2019-11-21 12:57:20+00,12.0
2019-11-21 12:57:50+00,12.0
2019-11-21 12:58:20+00,10.0
2019-11-21 12:58:50+00,10.0
2019-11-21 12:59:20+00,11.0
2019-11-21 13:00:00+00,10.0
2019-11-21 13:00:30+00,10.0
2019-11-21 13:01:00+00,10.0
2019-11-21 13:01:30+00,10.0
2019-11-21 13:02:00+00,10.0
2019-11-21 13:02:30+00,10.0
2019-11-21 13:03:00+00,10.0
2019-11-21 13:03:30+00,10.0
2019-11-21 13:06:10+00,10.0
2019-11-21 13:06:40+00,10.0
2019-11-21 13:07:10+00,10.0
2019-11-21 13:07:40+00,10.0
2019-11-21 13:08:10+00,10.0
2019-11-21 13:08:40+00,10.0
2019-11-21 13:09:10+00,11.0
2019-11-21 13:09:40+00,11.0
2019-11-21 13:10:10+00,11.0
2019-11-21 13:10:50+00,11.0
2019-11-21 13:11:20+00,10.0
2019-11-21 13:11:50+00,10.0
2019-11-21 13:12:50+00,7.0
2019-11-21 13:13:20+00,11.0
2019-11-21 13:13:50+00,11.0
2019-11-21 13:14:20+00,11.0
2019-11-21 13:14:50+00,11.0
2019-11-21 13:15:20+00,10.0
2019-11-21 13:16:00+00,9.0
2019-11-21 13:16:30+00,9.0
2019-11-21 13:17:00+00,11.0
2019-11-21 13:17:30+00,11.0
2019-11-21 13:18:00+00,10.0
2019-11-21 13:18:50+00,10.0
2019-11-21 13:19:20+00,11.0
2019-11-21 13:19:50+00,11.0
2019-11-21 13:20:20+00,11.0
2019-11-21 13:21:00+00,9.0
2019-11-21 13:21:30+00,9.0
2019-11-21 13:22:00+00,10.0
2019-11-21 13:22:30+00,10.0
2019-11-21 13:23:00+00,10.0
2019-11-21 13:23:30+00,10.0
2019-11-21 13:24:00+00,10.0
2019-11-21 13:24:30+00,10.0
2019-11-21 13:25:00+00,11.0
2019-11-21 13:25:30+00,11.0
2019-11-21 13:26:00+00,9.0
2019-11-21 13:26:40+00,9.0
2019-11-21 13:27:10+00,11.0
2019-11-21 13:27:40+00,11.0
2019-11-21 13:28:10+00,8.0
2019-11-21 13:28:40+00,8.0
2019-11-21 13:29:10+00,10.0
2019-11-21 13:29:40+00,10.0
2019-11-21 13:30:10+00,10.0
2019-11-21 13:30:40+00,10.0
2019-11-21 13:31:10+00,11.0
2019-11-21 13:31:40+00,11.0
2019-11-21 13:32:10+00,10.0
2019-11-21 13:32:40+00,10.0
2019-11-21 13:33:10+00,11.0
2019-11-21 13:33:40+00,11.0
2019-11-21 13:34:20+00,10.0
2019-11-21 13:34:50+00,10.0
2019-11-21 13:35:20+00,10.0
2019-11-21 13:35:50+00,10.0
2019-11-21 13:36:50+00,8.0
2019-11-21 13:37:20+00,10.0
2019-11-21 13:37:50+00,10.0
2019-11-21 13:38:20+00,9.0
2019-11-21 13:38:50+00,9.0
2019-11-21 13:39:20+00,9.0
2019-11-21 13:39:50+00,9.0
2019-11-21 13:40:50+00,11.0
2019-11-21 13:41:20+00,10.0
2019-11-21 13:43:00+00,10.0
2019-11-21 13:43:30+00,10.0
2019-11-21 13:44:00+00,9.0
2019-11-21 13:44:30+00,9.0
2019-11-21 13:45:10+00,11.0
2019-11-21 13:45:40+00,11.0
2019-11-22 09:28:10+00,
2019-11-22 09:28:50+00,
2019-11-22 09:29:20+00,
2019-11-22 09:29:50+00,
2019-11-22 09:30:20+00,
2019-11-22 09:30:50+00,
2019-11-22 09:31:20+00,
2019-11-22 09:31:50+00,
2019-11-22 09:32:20+00,
2019-11-22 09:32:50+00,
2019-11-22 09:33:20+00,
2019-11-22 09:33:50+00,
2019-11-22 09:34:20+00,
2019-11-22 09:35:00+00,
2019-11-22 09:35:30+00,
2019-11-22 09:36:00+00,
2019-11-22 09:36:30+00,
2019-11-22 09:37:00+00,
2019-11-22 09:37:30+00,
2019-11-22 09:38:00+00,
2019-11-22 09:38:30+00,
2019-11-22 09:39:00+00,
2019-11-22 09:39:30+00,
2019-11-22 09:40:00+00,
2019-11-22 09:40:30+00,
2019-11-22 09:41:00+00,
2019-11-22 09:41:30+00,
2019-11-22 09:42:00+00,
2019-11-22 09:42:30+00,
2019-11-22 09:43:10+00,
2019-11-22 09:43:40+00,
2019-11-22 09:44:10+00,
2019-11-22 09:44:40+00,
2019-11-22 09:45:10+00,
2019-11-22 09:45:40+00,
2019-11-22 09:46:10+00,
2019-11-22 09:46:40+00,
2019-11-22 09:47:10+00,
2019-11-22 09:47:40+00,
2019-11-22 09:48:10+00,
2019-11-22 09:48:40+00,
2019-11-22 09:49:20+00,
2019-11-22 09:49:50+00,
2019-11-22 09:50:20+00,
2019-11-22 09:50:50+00,
2019-11-22 09:51:20+00,
2019-11-22 09:51:50+00,
2019-11-22 09:52:20+00,
2019-11-22 09:52:50+00,
2019-11-22 09:53:20+00,
2019-11-22 09:53:50+00,
2019-11-22 09:54:20+00,
2019-11-22 09:54:50+00,
2019-11-22 09:55:20+00,
2019-11-22 09:55:50+00,
2019-11-22 09:56:20+00,
2019-11-22 09:56:50+00,
2019-11-22 09:57:20+00,
2019-11-22 09:58:00+00,
2019-11-22 09:58:30+00,
2019-11-22 09:59:00+00,
2019-11-22 09:59:30+00,
2019-11-22 10:00:00+00,
2019-11-22 10:00:30+00,
2019-11-22 10:01:00+00,
2019-11-22 10:01:30+00,
2019-11-22 10:02:00+00,
2019-11-22 10:02:30+00,
2019-11-22 10:03:00+00,
2019-11-22 10:03:40+00,
2019-11-22 10:04:10+00,
2019-11-22 10:04:40+00,
2019-11-22 10:05:10+00,
2019-11-22 10:05:40+00,
2019-11-22 10:06:10+00,
2019-11-22 10:06:40+00,
2019-11-22 10:07:10+00,
2019-11-22 10:07:40+00,
2019-11-22 10:08:10+00,
2019-11-22 10:08:40+00,
2019-11-22 10:09:10+00,
2019-11-22 10:09:40+00,
2019-11-22 10:10:10+00,
2019-11-22 10:10:50+00,
2019-11-22 10:11:20+00,
2019-11-22 10:11:50+00,
2019-11-22 10:12:20+00,
2019-11-22 10:12:50+00,
2019-11-22 10:13:20+00,
2019-11-22 10:13:50+00,
2019-11-22 10:14:20+00,
2019-11-22 10:14:50+00,
2019-11-22 10:15:20+00,
2019-11-22 10:15:50+00,
2019-11-22 10:16:20+00,
2019-11-22 10:16:50+00,
2019-11-22 10:17:20+00,
2019-11-22 10:17:50+00,
2019-11-22 10:18:20+00,
2019-11-22 10:19:00+00,
2019-11-22 10:19:30+00,
2019-11-22 10:20:00+00,
2019-11-22 10:20:30+00,
2019-11-22 10:21:00+00,
2019-11-18 09:10:00+00,
2019-11-18 09:10:30+00,
2019-11-18 09:11:00+00,
2019-11-18 09:11:30+00,
2019-11-18 09:13:00+00,
2019-11-18 09:32:20+00,
2019-11-18 09:39:00+00,
2019-11-18 09:48:20+00,
2019-11-18 10:00:20+00,
2019-11-18 10:00:50+00,
2019-11-18 10:08:10+00,
2019-11-18 10:15:10+00,
2019-11-18 10:25:00+00,
2019-11-18 10:25:30+00,
2019-11-18 10:47:00+00,
2019-11-18 10:47:30+00,
2019-11-18 10:53:10+00,
2019-11-18 10:54:20+00,
2019-11-18 11:04:00+00,
2019-11-18 11:04:30+00,
2019-11-18 11:26:00+00,
2019-11-18 11:26:30+00,
2019-11-18 11:29:00+00,
2019-11-18 11:29:30+00,
2019-11-18 11:34:40+00,
2019-11-18 11:43:10+00,
2019-11-18 11:49:20+00,
2019-11-18 11:55:10+00,
2019-11-18 11:58:10+00,
2019-11-18 12:33:10+00,
2019-11-18 12:36:20+00,
2019-11-18 12:39:20+00,
2019-11-18 12:39:50+00,
2019-11-18 12:58:00+00,
2019-11-18 13:00:30+00,
2019-11-18 13:03:50+00,
2019-11-18 15:15:10+00,
2019-11-18 15:18:20+00,
2019-11-18 15:22:00+00,
2019-11-18 15:34:20+00,
2019-11-18 15:34:50+00,
2019-11-18 15:41:00+00,
2019-11-18 15:41:30+00,
2019-11-18 15:46:40+00,
2019-11-18 15:48:10+00,
2019-11-18 15:54:20+00,
2019-11-19 09:00:10+00,
2019-11-19 09:00:40+00,
2019-11-19 09:06:30+00,
2019-11-20 09:10:10+00,
2019-11-20 09:12:20+00,
2019-11-20 09:21:00+00,
2019-11-20 09:21:30+00,
2019-11-20 09:22:00+00,
2019-11-20 09:31:40+00,
2019-11-20 09:32:10+00,
2019-11-20 09:35:20+00,
2019-11-20 10:41:10+00,
2019-11-20 10:41:40+00,
2019-11-20 12:21:00+00,
2019-11-20 12:37:00+00,
2019-11-20 12:37:30+00,
2019-11-20 12:38:10+00,
2019-11-20 12:39:20+00,
2019-11-20 12:50:20+00,
2019-11-20 12:50:50+00,
2019-11-20 13:01:10+00,
2019-11-20 13:01:40+00,
2019-11-20 13:21:00+00,
2019-11-20 13:43:00+00,
2019-11-20 13:43:30+00,
2019-11-20 13:44:00+00,
2019-11-20 13:53:00+00,
2019-11-20 13:53:30+00,
2019-11-20 13:57:00+00,
2019-11-20 14:07:10+00,
2019-11-21 09:06:00+00,
2019-11-21 09:07:10+00,
2019-11-21 09:17:00+00,
2019-11-21 09:28:20+00,
2019-11-21 09:28:50+00,
2019-11-21 09:34:00+00,
2019-11-21 09:35:10+00,
2019-11-21 09:46:00+00,
2019-11-21 09:52:10+00,
2019-11-21 09:52:40+00,
2019-11-21 09:59:20+00,
2019-11-21 10:05:00+00,
2019-11-21 10:10:10+00,
2019-11-21 10:10:40+00,
2019-11-21 10:15:20+00,
2019-11-21 10:15:50+00,
2019-11-21 10:29:10+00,
2019-11-21 10:45:10+00,
2019-11-21 11:07:20+00,
2019-11-21 11:07:50+00,
2019-11-21 11:19:10+00,
2019-11-21 11:19:40+00,
2019-11-21 11:32:10+00,
2019-11-21 11:42:50+00,
2019-11-21 11:43:20+00,
2019-11-21 11:53:10+00,
2019-11-21 11:53:40+00,
2019-11-21 12:15:20+00,
2019-11-21 12:16:20+00,
2019-11-21 12:23:20+00,
2019-11-21 12:24:30+00,
2019-11-21 12:31:10+00,
2019-11-21 13:04:00+00,
2019-11-21 13:04:30+00,
2019-11-21 13:05:10+00,
2019-11-21 13:05:40+00,
2019-11-21 13:12:20+00,
2019-11-21 13:36:20+00,
2019-11-21 13:40:20+00,
